5 The tidyverse – Programming with R for Social Scientists
…
Make sure to have the tidycomm and the tidyverse package installed before running this command!

# we load the necessary packages
library(tidycomm)
library(tidyverse)

# loads the WoJ dataset shipped with tidycomm
data_woj <- tidycomm::WoJ

# we inspect the data
data_woj |>
  as_tibble()

# A tibble: 1,200 × 15
   country   reach employment temp_contract autonomy_selection autonomy_emphasis
   <fct>     <fct> <chr>      <fct>                      <dbl>             <dbl>
 1 Germany   Nati… Full-time  Permanent                      5                 4
 2 Germany   Nati… Full-time  Permanent                      3                 4
 3 Switzerl… Regi… Full-time  Permanent                      4                 4
 4 Switzerl… Local Part-time  Permanent                      4                 5
 5 Austria   Nati… Part-time  Permanent                      4                 4
 6 Switzerl… Local Freelancer <NA>                           4                 4
 7 Germany   Local Full-time  Permanent                      4                 4
 8 Denmark   Nati… Full-time  Permanent                      3                 3
 9 Switzerl… Local Full-time  Permanent                      5                 5
10 Denmark   Nati… Full-time  Permanent                      2                 4
# ℹ 1,190 more rows
# ℹ 9 more variables: ethics_1 <dbl>, ethics_2 <dbl>, ethics_3 <dbl>,
#   ethics_4 <dbl>, work_experience <dbl>, trust_parliament <dbl>,
#   trust_government <dbl>, trust_parties <dbl>, trust_politicians <dbl>
…
