6 Data types – Programming with R for Social Scientists
…
 [1]  1  2  3  4  5  6  7  8  9 10 11 12 13 14 15 16 17 18 19 20

2.3 Tibble/Data frame

We already know tibbles:

A tibble (or a data frame) combines several vectors of equal length.

Our data_woj data set from tidycomm is an example for this:

data_woj

# A tibble: 1,200 × 15
   country   reach employment temp_contract autonomy_selection autonomy_emphasis
   <fct>     <fct> <chr>      <fct>                      <dbl>             <dbl>
 1 Germany   Nati… Full-time  Permanent                      5                 4
 2 Germany   Nati… Full-time  Permanent                      3                 4
 3 Switzerl… Regi… Full-time  Permanent                      4                 4
 4 Switzerl… Local Part-time  Permanent                      4                 5
 5 Austria   Nati… Part-time  Permanent                      4                 4
 6 Switzerl… Local Freelancer <NA>                           4                 4
 7 Germany   Local Full-time  Permanent                      4                 4
 8 Denmark   Nati… Full-time  Permanent                      3                 3
 9 Switzerl… Local Full-time  Permanent                      5                 5
10 Denmark   Nati… Full-time  Permanent                      2                 4
# ℹ 1,190 more rows
# ℹ 9 more variables: ethics_1 <dbl>, ethics_2 <dbl>, ethics_3 <dbl>,
#   ethics_4 <dbl>, work_experience <dbl>, trust_parliament <dbl>,
#   trust_government <dbl>, trust_parties <dbl>, trust_politicians <dbl>
…
