7 Creating visuals with ggplot – Programming with R for Social Scientists
…
In this tutorial, I will only introduce the very basics of visualizing data in R.

The goal is for you to become proficient enough to create basic graphs using R (instead of SPSS or Excel). However, please be aware that there are many, many more options for visualizing data.

If you have further questions about visualizing data in R, the following two tutorials/guides are excellent resources:

Chang, W. (2026). R Graphics Codebook: Practical Recipes for Visualizing Data. Link

Wickham, H. et al. (2021). ggplot2: Elegant Graphics for Data Analysis. Online work-in-progress version of the 3rd edition. Link

2. Let’s do it: Recreating a graph!

Our goal for today: We want to reproduce the following graph which visualizes the distribution of journalists’ work experience (in years) for each country, using the WoJ dataset.

# A tibble: 1,200 × 15
   country   reach employment temp_contract autonomy_selection autonomy_emphasis
   <fct>     <fct> <chr>      <fct>                      <dbl>             <dbl>
 1 Germany   Nati… Full-time  Permanent                      5                 4
 2 Germany   Nati… Full-time  Permanent                      3                 4
 3 Switzerl… Regi… Full-time  Permanent                      4                 4
 4 Switzerl… Local Part-time  Permanent                      4                 5
 5 Austria   Nati… Part-time  Permanent                      4                 4
 6 Switzerl… Local Freelancer <NA>                           4                 4
 7 Germany   Local Full-time  Permanent                      4                 4
 8 Denmark   Nati… Full-time  Permanent                      3                 3
 9 Switzerl… Local Full-time  Permanent                      5                 5
10 Denmark   Nati… Full-time  Permanent                      2                 4
# ℹ 1,190 more rows
# ℹ 9 more variables: ethics_1 <dbl>, ethics_2 <dbl>, ethics_3 <dbl>,
#   ethics_4 <dbl>, work_experience <dbl>, trust_parliament <dbl>,
#   trust_government <dbl>, trust_parties <dbl>, trust_politicians <dbl>
…
