8 Data management in R – Programming with R for Social Scientists
…
library(tidyverse)
data_woj_new <- read_csv2("data/data_woj.csv")

In this example, "data/data_woj.csv" refers to a file called data_woj.csv that is located inside the folder data. The imported dataset is stored in the object data_woj_new.

2. Understanding data in R

After loading a dataset into R, the next step is usually to inspect its structure and contents. This helps us understand what variables are available, what data types they have, and whether the dataset looks as expected. In the tidyverse workflow, several simple functions help us quickly explore a dataset.

To display the dataset in the console, we can simply type the object name. If the dataset is large, R will only print the first rows and columns.

data_woj_new

# A tibble: 1,200 × 15
   country   reach employment temp_contract autonomy_selection autonomy_emphasis
   <chr>     <chr> <chr>      <chr>                      <dbl>             <dbl>
 1 Germany   Nati… Full-time  Permanent                      5                 4
 2 Germany   Nati… Full-time  Permanent                      3                 4
 3 Switzerl… Regi… Full-time  Permanent                      4                 4
 4 Switzerl… Local Part-time  Permanent                      4                 5
 5 Austria   Nati… Part-time  Permanent                      4                 4
 6 Switzerl… Local Freelancer <NA>                           4                 4
 7 Germany   Local Full-time  Permanent                      4                 4
 8 Denmark   Nati… Full-time  Permanent                      3                 3
 9 Switzerl… Local Full-time  Permanent                      5                 5
10 Denmark   Nati… Full-time  Permanent                      2                 4
# ℹ 1,190 more rows
# ℹ 9 more variables: ethics_1 <dbl>, ethics_2 <dbl>, ethics_3 <dbl>,
#   ethics_4 <dbl>, work_experience <dbl>, trust_parliament <dbl>,
#   trust_government <dbl>, trust_parties <dbl>, trust_politicians <dbl>
…
